{
    "height": 9793,
    "time": "2021-04-11T02:15:35.463989905Z",
    "hash": "CwInsba7+YCNK6g703YWO3TqgDA/rLOSiDDkxhfHkC8=",
    "results": {
        "height": 9793,
        "txs_results": [
            {
                "code": 0,
                "data": "Cg4KDHNldF90c3NfcG9vbA==",
                "log": "[{\"events\":[{\"type\":\"message\",\"attributes\":[{\"key\":\"action\",\"value\":\"set_tss_pool\"}]}]}]",
                "info": "",
                "gas_wanted": "100000000",
                "gas_used": "76368",
                "events": [
                    {
                        "type": "message",
                        "attributes": [
                            {
                                "key": "YWN0aW9u",
                                "value": "c2V0X3Rzc19wb29s",
                                "index": true
                            }
                        ]
                    }
                ],
                "codespace": ""
            },
            {
                "code": 0,
                "data": "Cg4KDHNldF90c3NfcG9vbA==",
                "log": "[{\"events\":[{\"type\":\"ActiveVault\",\"attributes\":[{\"key\":\"add new asgard vault\",\"value\":\"ddpub1addwnpepqtkn8e3w2vlfd8mr59yv82qdm7pkqksxlkxe9xrtzewm9hyk5gz4y52uy2m\"}]},{\"type\":\"InactiveVault\",\"attributes\":[{\"key\":\"set asgard vault to inactive\",\"value\":\"ddpub1addwnpepqwprh5vd0rrk78kd98qjruuazwvapnxft7f86w7hlf768whxytpn5quf2gs\"},{\"key\":\"set asgard vault to inactive\",\"value\":\"ddpub1addwnpepqtkn8e3w2vlfd8mr59yv82qdm7pkqksxlkxe9xrtzewm9hyk5gz4y52uy2m\"}]},{\"type\":\"message\",\"attributes\":[{\"key\":\"action\",\"value\":\"set_tss_pool\"}]},{\"type\":\"tss_keygen\",\"attributes\":[{\"key\":\"pubkey\",\"value\":\"ddpub1addwnpepqtkn8e3w2vlfd8mr59yv82qdm7pkqksxlkxe9xrtzewm9hyk5gz4y52uy2m\"},{\"key\":\"median_duration_ms\",\"value\":\"5401\"}]}]}]",
                "info": "",
                "gas_wanted": "100000000",
                "gas_used": "275521",
                "events": [
                    {
                        "type": "message",
                        "attributes": [
                            {
                                "key": "YWN0aW9u",
                                "value": "c2V0X3Rzc19wb29s",
                                "index": true
                            }
                        ]
                    },
                    {
                        "type": "InactiveVault",
                        "attributes": [
                            {
                                "key": "c2V0IGFzZ2FyZCB2YXVsdCB0byBpbmFjdGl2ZQ==",
                                "value": "dGhvcnB1YjFhZGR3bnBlcHF3cHJoNXZkMHJyazc4a2Q5OHFqcnV1YXp3dmFwbnhmdDdmODZ3N2hsZjc2OHdoeHl0cG41cXVmMmdz",
                                "index": true
                            }
                        ]
                    },
                    {
                        "type": "InactiveVault",
                        "attributes": [
                            {
                                "key": "c2V0IGFzZ2FyZCB2YXVsdCB0byBpbmFjdGl2ZQ==",
                                "value": "dGhvcnB1YjFhZGR3bnBlcHF0a244ZTN3MnZsZmQ4bXI1OXl2ODJxZG03cGtxa3N4bGt4ZTl4cnR6ZXdtOWh5azVnejR5NTJ1eTJt",
                                "index": true
                            }
                        ]
                    },
                    {
                        "type": "ActiveVault",
                        "attributes": [
                            {
                                "key": "YWRkIG5ldyBhc2dhcmQgdmF1bHQ=",
                                "value": "dGhvcnB1YjFhZGR3bnBlcHF0a244ZTN3MnZsZmQ4bXI1OXl2ODJxZG03cGtxa3N4bGt4ZTl4cnR6ZXdtOWh5azVnejR5NTJ1eTJt",
                                "index": true
                            }
                        ]
                    },
                    {
                        "type": "tss_keygen",
                        "attributes": [
                            {
                                "key": "cHVia2V5",
                                "value": "dGhvcnB1YjFhZGR3bnBlcHF0a244ZTN3MnZsZmQ4bXI1OXl2ODJxZG03cGtxa3N4bGt4ZTl4cnR6ZXdtOWh5azVnejR5NTJ1eTJt",
                                "index": true
                            },
                            {
                                "key": "bWVkaWFuX2R1cmF0aW9uX21z",
                                "value": "NTQwMQ==",
                                "index": true
                            }
                        ]
                    }
                ],
                "codespace": ""
            },
            {
                "code": 0,
                "data": "Cg4KDHNldF90c3NfcG9vbA==",
                "log": "[{\"events\":[{\"type\":\"message\",\"attributes\":[{\"key\":\"action\",\"value\":\"set_tss_pool\"}]}]}]",
                "info": "",
                "gas_wanted": "100000000",
                "gas_used": "90583",
                "events": [
                    {
                        "type": "message",
                        "attributes": [
                            {
                                "key": "YWN0aW9u",
                                "value": "c2V0X3Rzc19wb29s",
                                "index": true
                            }
                        ]
                    }
                ],
                "codespace": ""
            }
        ],
        "begin_block_events": null,
        "end_block_events": [
            {
                "type": "UpdateNodeAccountStatus",
                "attributes": [
                    {
                        "key": "QWRkcmVzcw==",
                        "value": "dGhvcjE5OXB2emplcGE0MGdqZm5kM2x1Z2syeHlkc2w2ZDYyeTJyZ2p0bA==",
                        "index": true
                    },
                    {
                        "key": "Rm9ybWVyOg==",
                        "value": "UmVhZHk=",
                        "index": true
                    },
                    {
                        "key": "Q3VycmVudDo=",
                        "value": "QWN0aXZl",
                        "index": true
                    }
                ]
            },
            {
                "type": "UpdateNodeAccountStatus",
                "attributes": [
                    {
                        "key": "QWRkcmVzcw==",
                        "value": "dGhvcjE3ZXJncTdybmhrcGg2ZXY2MnN6eXdmcTd2bXp3bm03dnR4MnB2Ng==",
                        "index": true
                    },
                    {
                        "key": "Rm9ybWVyOg==",
                        "value": "UmVhZHk=",
                        "index": true
                    },
                    {
                        "key": "Q3VycmVudDo=",
                        "value": "QWN0aXZl",
                        "index": true
                    }
                ]
            }
        ],
        "validator_updates": [
            {
                "pub_key": {
                    "Sum": {
                        "ed25519": "7K4T1FMG9liTUJkEQ4rlDk2RQyGQ1Ztzo0RikkmpojI="
                    }
                },
                "power": 100
            },
            {
                "pub_key": {
                    "Sum": {
                        "ed25519": "ylF1ZahC8xVnRa2b5HEwfye9wv0b9GF1sPu69SZ3ALI="
                    }
                },
                "power": 100
            }
        ],
        "consensus_param_updates": {
            "block": {
                "max_bytes": 22020096,
                "max_gas": -1
            },
            "evidence": {
                "max_age_num_blocks": 100000,
                "max_age_duration": 172800000000000,
                "max_bytes": 1048576
            },
            "validator": {
                "pub_key_types": [
                    "ed25519"
                ]
            }
        }
    }
}