module accounts

go 1.17

require (
	github.com/cosmos/cosmos-sdk v0.45.2
	github.com/syndtr/goleveldb v1.0.1-0.20200815110645-5c35d600f0ca
	github.com/tendermint/tm-db v0.6.6
)

require (
	filippo.io/edwards25519 v1.0.0-beta.2 // indirect
	github.com/99designs/keyring v1.1.6 // indirect
	github.com/ChainSafe/go-schnorrkel v0.0.0-20200405005733-88cbf1b4c40d // indirect
	github.com/DataDog/zstd v1.4.5 // indirect
	github.com/armon/go-metrics v0.3.10 // indirect
	github.com/beorn7/perks v1.0.1 // indirect
	github.com/bgentry/speakeasy v0.1.0 // indirect
	github.com/btcsuite/btcd v0.22.0-beta // indirect
	github.com/cespare/xxhash v1.1.0 // indirect
	github.com/cespare/xxhash/v2 v2.1.2 // indirect
	github.com/confio/ics23/go v0.6.6 // indirect
	github.com/cosmos/btcutil v1.0.4 // indirect
	github.com/cosmos/go-bip39 v1.0.0 // indirect
	github.com/cosmos/iavl v0.17.3 // indirect
	github.com/cosmos/ledger-cosmos-go v0.11.1 // indirect
	github.com/cosmos/ledger-go v0.9.2 // indirect
	github.com/danieljoos/wincred v1.0.2 // indirect
	github.com/davecgh/go-spew v1.1.1 // indirect
	github.com/dgraph-io/badger/v2 v2.2007.2 // indirect
	github.com/dgraph-io/ristretto v0.0.3 // indirect
	github.com/dgryski/go-farm v0.0.0-20200201041132-a6ae2369ad13 // indirect
	github.com/dustin/go-humanize v1.0.0 // indirect
	github.com/dvsekhvalnov/jose2go v0.0.0-20200901110807-248326c1351b // indirect
	github.com/fsnotify/fsnotify v1.5.1 // indirect
	github.com/go-kit/kit v0.12.0 // indirect
	github.com/go-kit/log v0.2.0 // indirect
	github.com/go-logfmt/logfmt v0.5.1 // indirect
	github.com/godbus/dbus v0.0.0-20190726142602-4481cbc300e2 // indirect
	github.com/gogo/protobuf v1.3.3 // indirect
	github.com/golang/protobuf v1.5.2 // indirect
	github.com/golang/snappy v0.0.3 // indirect
	github.com/google/btree v1.0.0 // indirect
	github.com/gorilla/mux v1.8.0 // indirect
	github.com/gorilla/websocket v1.5.0 // indirect
	github.com/grpc-ecosystem/go-grpc-middleware v1.3.0 // indirect
	github.com/grpc-ecosystem/grpc-gateway v1.16.0 // indirect
	github.com/gsterjov/go-libsecret v0.0.0-20161001094733-a6f4afe4910c // indirect
	github.com/gtank/merlin v0.1.1 // indirect
	github.com/gtank/ristretto255 v0.1.2 // indirect
	github.com/hashicorp/go-immutable-radix v1.3.1 // indirect
	github.com/hashicorp/golang-lru v0.5.4 // indirect
	github.com/hashicorp/hcl v1.0.0 // indirect
	github.com/hdevalence/ed25519consensus v0.0.0-20210204194344-59a8610d2b87 // indirect
	github.com/inconshreveable/mousetrap v1.0.0 // indirect
	github.com/jmhodges/levigo v1.0.0 // indirect
	github.com/keybase/go-keychain v0.0.0-20190712205309-48d3d31d256d // indirect
	github.com/libp2p/go-buffer-pool v0.0.2 // indirect
	github.com/magiconair/properties v1.8.5 // indirect
	github.com/mattn/go-isatty v0.0.14 // indirect
	github.com/matttproud/golang_protobuf_extensions v1.0.1 // indirect
	github.com/mimoo/StrobeGo v0.0.0-20181016162300-f8f6d4d2b643 // indirect
	github.com/mitchellh/go-homedir v1.1.0 // indirect
	github.com/mitchellh/mapstructure v1.4.3 // indirect
	github.com/mtibben/percent v0.2.1 // indirect
	github.com/pelletier/go-toml v1.9.4 // indirect
	github.com/petermattis/goid v0.0.0-20180202154549-b0b1615b78e5 // indirect
	github.com/pkg/errors v0.9.1 // indirect
	github.com/pmezard/go-difflib v1.0.0 // indirect
	github.com/prometheus/client_golang v1.12.1 // indirect
	github.com/prometheus/client_model v0.2.0 // indirect
	github.com/prometheus/common v0.32.1 // indirect
	github.com/prometheus/procfs v0.7.3 // indirect
	github.com/rcrowley/go-metrics v0.0.0-20200313005456-10cdbea86bc0 // indirect
	github.com/regen-network/cosmos-proto v0.3.1 // indirect
	github.com/sasha-s/go-deadlock v0.2.1-0.20190427202633-1595213edefa // indirect
	github.com/spf13/afero v1.6.0 // indirect
	github.com/spf13/cast v1.4.1 // indirect
	github.com/spf13/cobra v1.3.0 // indirect
	github.com/spf13/jwalterweatherman v1.1.0 // indirect
	github.com/spf13/pflag v1.0.5 // indirect
	github.com/spf13/viper v1.10.1 // indirect
	github.com/stretchr/testify v1.7.0 // indirect
	github.com/subosito/gotenv v1.2.0 // indirect
	github.com/tecbot/gorocksdb v0.0.0-20191217155057-f0fad39f321c // indirect
	github.com/tendermint/btcd v0.1.1 // indirect
	github.com/tendermint/crypto v0.0.0-20191022145703-50d29ede1e15 // indirect
	github.com/tendermint/go-amino v0.16.0 // indirect
	github.com/tendermint/tendermint v0.34.16 // indirect
	github.com/zondax/hid v0.9.0 // indirect
	go.etcd.io/bbolt v1.3.6 // indirect
	golang.org/x/crypto v0.0.0-20210915214749-c084706c2272 // indirect
	golang.org/x/net v0.0.0-20211208012354-db4efeb81f4b // indirect
	golang.org/x/sys v0.0.0-20220114195835-da31bd327af9 // indirect
	golang.org/x/term v0.0.0-20201126162022-7de9c90e9dd1 // indirect
	golang.org/x/text v0.3.7 // indirect
	google.golang.org/genproto v0.0.0-20211223182754-3ac035c7e7cb // indirect
	google.golang.org/grpc v1.44.0 // indirect
	google.golang.org/protobuf v1.27.1 // indirect
	gopkg.in/ini.v1 v1.66.2 // indirect
	gopkg.in/yaml.v2 v2.4.0 // indirect
	gopkg.in/yaml.v3 v3.0.0-20210107192922-496545a6307b // indirect
)

replace (
	github.com/agl/ed25519 => github.com/binance-chain/edwards25519 v0.0.0-20200305024217-f36fc4b53d43
	github.com/binance-chain/tss-lib => gitlab.com/digitaldollar/tss/tss-lib v0.1.2
	github.com/cosmos/ledger-cosmos-go => github.com/ddchain/ledger-ddchain-go v0.12.1
	github.com/gogo/protobuf => github.com/regen-network/protobuf v1.3.2-alpha.regen.4
	github.com/tendermint/go-amino => github.com/binance-chain/bnc-go-amino v0.14.1-binance.1
	github.com/zondax/ledger-go => github.com/binance-chain/ledger-go v0.9.1
)
